CRC/crc8.vcd
$version Generated by VerilatedVcd $end
$timescale 1ps $end
 $scope module TOP $end
  $scope module crc_calculator_tb $end
   $var wire 1 * clk $end
   $var wire 1 + rst $end
   $var wire 1 , valid $end
   $var wire 8 - data_in [7:0] $end
   $var wire 8 # crc_out [7:0] $end
   $var wire 1 $ done $end
   $scope module dut $end
    $var wire 32 . N [31:0] $end
    $var wire 8 / POLY [7:0] $end
    $var wire 8 0 INIT [7:0] $end
    $var wire 1 * clk $end
    $var wire 1 + rst $end
    $var wire 1 , valid $end
    $var wire 8 - data_in [7:0] $end
    $var wire 8 # crc_out [7:0] $end
    $var wire 1 $ done $end
    $var wire 8 # crc_reg [7:0] $end
    $var wire 8 % data_reg [7:0] $end
    $var wire 3 & bit_cnt [2:0] $end
    $var wire 1 ' busy $end
    $var wire 1 ( feedback $end
    $var wire 3 1 CNT_MAX [2:0] $end
    $var wire 1 $ done_reg $end
    $var wire 1 ) busy_d $end
   $upscope $end
  $upscope $end
 $upscope $end
$enddefinitions $end


#0
b00000000 #
0$
b00000000 %
b000 &
0'
0(
0)
0*
1+
0,
b00000000 -
b00000000000000000000000000001000 .
b00000111 /
b00000000 0
b111 1
#5000
1*
#10000
0*
#15000
1*
#20000
0*
0+
#25000
b10110010 %
1'
1(
1*
1,
b10110010 -
#30000
0*
#35000
b00000111 #
b01100100 %
b001 &
0(
1)
1*
0,
#40000
0*
#45000
b00001110 #
b11001000 %
b010 &
1(
1*
#50000
0*
#55000
b00011011 #
b10010000 %
b011 &
1*
#60000
0*
#65000
b00110001 #
b00100000 %
b100 &
0(
1*
#70000
0*
#75000
b01100010 #
b01000000 %
b101 &
1*
#80000
0*
#85000
b11000100 #
b10000000 %
b110 &
1*
#90000
0*
#95000
b10001000 #
b00000000 %
b111 &
1(
1*
#100000
0*
#105000
b00010111 #
1$
b000 &
0'
0(
1*
#110000
0*
#115000
0$
0)
1*
#120000
0*
#125000
b00000000 #
b10011010 %
1'
1(
1*
1,
b10011010 -
#130000
0*
#135000
b00000111 #
b00110100 %
b001 &
0(
1)
1*
0,
#140000
0*
#145000
b00001110 #
b01101000 %
b010 &
1*
#150000
0*
#155000
b00011100 #
b11010000 %
b011 &
1(
1*
#160000
0*
#165000
b00111111 #
b10100000 %
b100 &
1*
#170000
0*
#175000
b01111001 #
b01000000 %
b101 &
0(
1*
#180000
0*
#185000
b11110010 #
b10000000 %
b110 &
1*
#190000
0*
#195000
b11100100 #
b00000000 %
b111 &
1(
1*
#200000
0*
#205000
b11001111 #
1$
b000 &
0'
1*
#210000
0*
#215000
0$
0)
1*
